<Test_startGame_Tiles>
<Wall> - <none> Neighbours:
U: <Wall> - <none>
L: <none>
D: <none>
R: <Wall> - <none>
<Wall> - <none> Neighbours:
U: <Wall> - <none>
L: <none>
D: <Wall> - <none>
R: <CrateDestination> - <none>
<Wall> - <none> Neighbours:
U: <Wall> - <none>
L: <none>
D: <Wall> - <none>
R: <none>
<Wall> - <none> Neighbours:
U: <Wall> - <none>
L: <none>
D: <Wall> - <none>
R: <none>
<Wall> - <none> Neighbours:
U: <none>
L: <none>
D: <Wall> - <none>
R: <Wall> - <none>
<Wall> - <none> Neighbours:
U: <CrateDestination> - <none>
L: <Wall> - <none>
D: <none>
R: <Wall> - <none>
<CrateDestination> - <none> Neighbours:
U: <none>
L: <Wall> - <none>
D: <Wall> - <none>
R: <none>
<none> - <none> Neighbours:
U: <none>
L: <Wall> - <none>
D: <CrateDestination> - <none>
R: <none> - <Crate>
<none> - <none> Neighbours:
U: <Wall> - <none>
L: <Wall> - <none>
D: <none>
R: <SwitchHole> - <none>
<Wall> - <none> Neighbours:
U: <none>
L: <Wall> - <none>
D: <none>
R: <Wall> - <none>
<Wall> - <none> Neighbours:
U: <none>
L: <Wall> - <none>
D: <none>
R: <Wall> - <none>
<none> - <none> Neighbours:
U: <none> - <Crate>
L: <CrateDestination> - <none>
D: <Wall> - <none>
R: <none>
<none> - <Crate> Neighbours:
U: <SwitchHole> - <none>
L: <none>
D: <none>
R: <none>
<SwitchHole> - <none> Neighbours:
U: <Wall> - <none>
L: <none>
D: <none> - <Crate>
R: <none> - <Worker>
<Wall> - <none> Neighbours:
U: <none>
L: <Wall> - <none>
D: <SwitchHole> - <none>
R: <Wall> - <none>
<Wall> - <none> Neighbours:
U: <none>
L: <Wall> - <none>
D: <none>
R: <Wall> - <none>
<none> - <none> Neighbours:
U: <none>
L: <none>
D: <Wall> - <none>
R: <none>
<none> - <none> Neighbours:
U: <none> - <Worker>
L: <none> - <Crate>
D: <none>
R: <none> - <Crate>
<none> - <Worker> Neighbours:
U: <Wall> - <none>
L: <SwitchHole> - <none>
D: <none>
R: <Switch> - <none>
<Wall> - <none> Neighbours:
U: <none>
L: <Wall> - <none>
D: <none> - <Worker>
R: <Wall> - <none>
<Wall> - <none> Neighbours:
U: <none>
L: <Wall> - <none>
D: <none>
R: <Wall> - <none>
<none> - <none> Neighbours:
U: <none> - <Crate>
L: <none>
D: <Wall> - <none>
R: <none> - <Worker>
<none> - <Crate> Neighbours:
U: <Switch> - <none>
L: <none>
D: <none>
R: <none>
<Switch> - <none> Neighbours:
U: <Wall> - <none>
L: <none> - <Worker>
D: <none> - <Crate>
R: <CrateDestination> - <none>
<Wall> - <none> Neighbours:
U: <none>
L: <Wall> - <none>
D: <Switch> - <none>
R: <Wall> - <none>
<Wall> - <none> Neighbours:
U: <none> - <Worker>
L: <Wall> - <none>
D: <none>
R: <Wall> - <none>
<none> - <Worker> Neighbours:
U: <none>
L: <none>
D: <Wall> - <none>
R: <Wall> - <none>
<none> - <none> Neighbours:
U: <CrateDestination> - <none>
L: <none> - <Crate>
D: <none> - <Worker>
R: <Wall> - <none>
<CrateDestination> - <none> Neighbours:
U: <Wall> - <none>
L: <Switch> - <none>
D: <none>
R: <Wall> - <none>
<Wall> - <none> Neighbours:
U: <none>
L: <Wall> - <none>
D: <CrateDestination> - <none>
R: <Wall> - <none>
<Wall> - <none> Neighbours:
U: <Wall> - <none>
L: <Wall> - <none>
D: <none>
R: <none>
<Wall> - <none> Neighbours:
U: <Wall> - <none>
L: <none> - <Worker>
D: <Wall> - <none>
R: <none>
<Wall> - <none> Neighbours:
U: <Wall> - <none>
L: <none>
D: <Wall> - <none>
R: <none>
<Wall> - <none> Neighbours:
U: <Wall> - <none>
L: <CrateDestination> - <none>
D: <Wall> - <none>
R: <none>
<Wall> - <none> Neighbours:
U: <none>
L: <Wall> - <none>
D: <Wall> - <none>
R: <none>
<\Test_startGame_Tiles>

<Test_startGame_WorkerPositions>
<Worker>,<none> - <Worker> Neighbours:
U: <Wall> - <none>
L: <SwitchHole> - <none>
D: <none>
R: <Switch> - <none>
<Worker>,<none> - <Worker> Neighbours:
U: <none>
L: <none>
D: <Wall> - <none>
R: <Wall> - <none>
<\Test_startGame_WorkerPositions>

<Test_startGame_CratePosAndDes>
<CrateDestination>,<CrateDestination> - <none> Neighbours:
U: <none>
L: <Wall> - <none>
D: <Wall> - <none>
R: <none>
<Crate>,<none> - <Crate> Neighbours:
U: <SwitchHole> - <none>
L: <none>
D: <none>
R: <none>
<Crate>,<none> - <Crate> Neighbours:
U: <Switch> - <none>
L: <none>
D: <none>
R: <none>
<CrateDestination>,<CrateDestination> - <none> Neighbours:
U: <Wall> - <none>
L: <Switch> - <none>
D: <none>
R: <Wall> - <none>
<\Test_startGame_CratePosAndDes>

<Test_startGame_Players>
<1> - <Player 0>
<2> - <Player 1>
<\Test_startGame_Players>

<Test_startGame_Points>
<1> - <Player 0>: <0>
<2> - <Player 1>: <0>
<\Test_startGame_Points>
-----------------------------------------------------------------------------------------------------------------------------------------------------------

<Test_givePointCtoCD_Tiles>
<Wall> - <none> Neighbours:
U: <Wall> - <none>
L: <none>
D: <none>
R: <Wall> - <none>
<Wall> - <none> Neighbours:
U: <Wall> - <none>
L: <none>
D: <Wall> - <none>
R: <CrateDestination> - <none>
<Wall> - <none> Neighbours:
U: <Wall> - <none>
L: <none>
D: <Wall> - <none>
R: <none>
<Wall> - <none> Neighbours:
U: <Wall> - <none>
L: <none>
D: <Wall> - <none>
R: <none>
<Wall> - <none> Neighbours:
U: <none>
L: <none>
D: <Wall> - <none>
R: <Wall> - <none>
<Wall> - <none> Neighbours:
U: <CrateDestination> - <none>
L: <Wall> - <none>
D: <none>
R: <Wall> - <none>
<CrateDestination> - <none> Neighbours:
U: <none>
L: <Wall> - <none>
D: <Wall> - <none>
R: <none>
<none> - <none> Neighbours:
U: <none>
L: <Wall> - <none>
D: <CrateDestination> - <none>
R: <none> - <Crate>
<none> - <none> Neighbours:
U: <Wall> - <none>
L: <Wall> - <none>
D: <none>
R: <SwitchHole> - <none>
<Wall> - <none> Neighbours:
U: <none>
L: <Wall> - <none>
D: <none>
R: <Wall> - <none>
<Wall> - <none> Neighbours:
U: <none>
L: <Wall> - <none>
D: <none>
R: <Wall> - <none>
<none> - <none> Neighbours:
U: <none> - <Crate>
L: <CrateDestination> - <none>
D: <Wall> - <none>
R: <none>
<none> - <Crate> Neighbours:
U: <SwitchHole> - <none>
L: <none>
D: <none>
R: <none>
<SwitchHole> - <none> Neighbours:
U: <Wall> - <none>
L: <none>
D: <none> - <Crate>
R: <none> - <Worker>
<Wall> - <none> Neighbours:
U: <none>
L: <Wall> - <none>
D: <SwitchHole> - <none>
R: <Wall> - <none>
<Wall> - <none> Neighbours:
U: <none>
L: <Wall> - <none>
D: <none>
R: <Wall> - <none>
<none> - <none> Neighbours:
U: <none>
L: <none>
D: <Wall> - <none>
R: <none>
<none> - <none> Neighbours:
U: <none> - <Worker>
L: <none> - <Crate>
D: <none>
R: <none> - <Crate>
<none> - <Worker> Neighbours:
U: <Wall> - <none>
L: <SwitchHole> - <none>
D: <none>
R: <Switch> - <none>
<Wall> - <none> Neighbours:
U: <none>
L: <Wall> - <none>
D: <none> - <Worker>
R: <Wall> - <none>
<Wall> - <none> Neighbours:
U: <none>
L: <Wall> - <none>
D: <none>
R: <Wall> - <none>
<none> - <none> Neighbours:
U: <none> - <Crate>
L: <none>
D: <Wall> - <none>
R: <none> - <Worker>
<none> - <Crate> Neighbours:
U: <Switch> - <none>
L: <none>
D: <none>
R: <none>
<Switch> - <none> Neighbours:
U: <Wall> - <none>
L: <none> - <Worker>
D: <none> - <Crate>
R: <CrateDestination> - <none>
<Wall> - <none> Neighbours:
U: <none>
L: <Wall> - <none>
D: <Switch> - <none>
R: <Wall> - <none>
<Wall> - <none> Neighbours:
U: <none> - <Worker>
L: <Wall> - <none>
D: <none>
R: <Wall> - <none>
<none> - <Worker> Neighbours:
U: <none>
L: <none>
D: <Wall> - <none>
R: <Wall> - <none>
<none> - <none> Neighbours:
U: <CrateDestination> - <none>
L: <none> - <Crate>
D: <none> - <Worker>
R: <Wall> - <none>
<CrateDestination> - <none> Neighbours:
U: <Wall> - <none>
L: <Switch> - <none>
D: <none>
R: <Wall> - <none>
<Wall> - <none> Neighbours:
U: <none>
L: <Wall> - <none>
D: <CrateDestination> - <none>
R: <Wall> - <none>
<Wall> - <none> Neighbours:
U: <Wall> - <none>
L: <Wall> - <none>
D: <none>
R: <none>
<Wall> - <none> Neighbours:
U: <Wall> - <none>
L: <none> - <Worker>
D: <Wall> - <none>
R: <none>
<Wall> - <none> Neighbours:
U: <Wall> - <none>
L: <none>
D: <Wall> - <none>
R: <none>
<Wall> - <none> Neighbours:
U: <Wall> - <none>
L: <CrateDestination> - <none>
D: <Wall> - <none>
R: <none>
<Wall> - <none> Neighbours:
U: <none>
L: <Wall> - <none>
D: <Wall> - <none>
R: <none>
<\Test_givePointCtoCD_Tiles>

<Test_givePointCtoCD_WorkerPositions1>
<Worker>,<none> - <Worker> Neighbours:
U: <Wall> - <none>
L: <SwitchHole> - <none>
D: <none>
R: <Switch> - <none>
<Worker>,<none> - <Worker> Neighbours:
U: <none>
L: <none>
D: <Wall> - <none>
R: <Wall> - <none>
<\Test_givePointCtoCD_WorkerPositions1>

<Test_givePointCtoCD_CratePosAndDes>
<CrateDestination>,<CrateDestination> - <none> Neighbours:
U: <none>
L: <Wall> - <none>
D: <Wall> - <none>
R: <none>
<Crate>,<none> - <Crate> Neighbours:
U: <SwitchHole> - <none>
L: <none>
D: <none>
R: <none>
<Crate>,<none> - <Crate> Neighbours:
U: <Switch> - <none>
L: <none>
D: <none>
R: <none>
<CrateDestination>,<CrateDestination> - <none> Neighbours:
U: <Wall> - <none>
L: <Switch> - <none>
D: <none>
R: <Wall> - <none>
<\Test_givePointCtoCD_CratePosAndDes>

<Test_givePointCtoCD_Points1>
<1> - <Player 0>: <0>
<2> - <Player 1>: <0>
<\Test_givePointCtoCD_Points1>

<Test_givePointCtoCD_WorkerPositions2>
<Worker>,<Switch> - <Worker> Neighbours:
U: <Wall> - <none>
L: <none>
D: <none>
R: <CrateDestination> - <Crate>
<Worker>,<none> - <Worker> Neighbours:
U: <Switch> - <Worker>
L: <none>
D: <none>
R: <Wall> - <none>
<\Test_givePointCtoCD_WorkerPositions2>

<Test_givePointCtoCD_Points2>
<1> - <Player 0>: <1>
<2> - <Player 1>: <0>
<\Test_givePointCtoCD_Points2>

-----------------------------------------------------------------------------------------------------------------------------------------------------------
<Test_workerCantStepOnOWorker_Tiles>
<Wall> - <none> Neighbours:
U: <Wall> - <none>
L: <none>
D: <none>
R: <Wall> - <none>
<Wall> - <none> Neighbours:
U: <Wall> - <none>
L: <none>
D: <Wall> - <none>
R: <CrateDestination> - <none>
<Wall> - <none> Neighbours:
U: <Wall> - <none>
L: <none>
D: <Wall> - <none>
R: <none>
<Wall> - <none> Neighbours:
U: <Wall> - <none>
L: <none>
D: <Wall> - <none>
R: <none>
<Wall> - <none> Neighbours:
U: <none>
L: <none>
D: <Wall> - <none>
R: <Wall> - <none>
<Wall> - <none> Neighbours:
U: <CrateDestination> - <none>
L: <Wall> - <none>
D: <none>
R: <Wall> - <none>
<CrateDestination> - <none> Neighbours:
U: <none>
L: <Wall> - <none>
D: <Wall> - <none>
R: <none>
<none> - <none> Neighbours:
U: <none>
L: <Wall> - <none>
D: <CrateDestination> - <none>
R: <none> - <Crate>
<none> - <none> Neighbours:
U: <Wall> - <none>
L: <Wall> - <none>
D: <none>
R: <SwitchHole> - <none>
<Wall> - <none> Neighbours:
U: <none>
L: <Wall> - <none>
D: <none>
R: <Wall> - <none>
<Wall> - <none> Neighbours:
U: <none>
L: <Wall> - <none>
D: <none>
R: <Wall> - <none>
<none> - <none> Neighbours:
U: <none> - <Crate>
L: <CrateDestination> - <none>
D: <Wall> - <none>
R: <none>
<none> - <Crate> Neighbours:
U: <SwitchHole> - <none>
L: <none>
D: <none>
R: <none>
<SwitchHole> - <none> Neighbours:
U: <Wall> - <none>
L: <none>
D: <none> - <Crate>
R: <none> - <Worker>
<Wall> - <none> Neighbours:
U: <none>
L: <Wall> - <none>
D: <SwitchHole> - <none>
R: <Wall> - <none>
<Wall> - <none> Neighbours:
U: <none>
L: <Wall> - <none>
D: <none>
R: <Wall> - <none>
<none> - <none> Neighbours:
U: <none>
L: <none>
D: <Wall> - <none>
R: <none>
<none> - <none> Neighbours:
U: <none> - <Worker>
L: <none> - <Crate>
D: <none>
R: <none> - <Crate>
<none> - <Worker> Neighbours:
U: <Wall> - <none>
L: <SwitchHole> - <none>
D: <none>
R: <Switch> - <none>
<Wall> - <none> Neighbours:
U: <none>
L: <Wall> - <none>
D: <none> - <Worker>
R: <Wall> - <none>
<Wall> - <none> Neighbours:
U: <none>
L: <Wall> - <none>
D: <none>
R: <Wall> - <none>
<none> - <none> Neighbours:
U: <none> - <Crate>
L: <none>
D: <Wall> - <none>
R: <none> - <Worker>
<none> - <Crate> Neighbours:
U: <Switch> - <none>
L: <none>
D: <none>
R: <none>
<Switch> - <none> Neighbours:
U: <Wall> - <none>
L: <none> - <Worker>
D: <none> - <Crate>
R: <CrateDestination> - <none>
<Wall> - <none> Neighbours:
U: <none>
L: <Wall> - <none>
D: <Switch> - <none>
R: <Wall> - <none>
<Wall> - <none> Neighbours:
U: <none> - <Worker>
L: <Wall> - <none>
D: <none>
R: <Wall> - <none>
<none> - <Worker> Neighbours:
U: <none>
L: <none>
D: <Wall> - <none>
R: <Wall> - <none>
<none> - <none> Neighbours:
U: <CrateDestination> - <none>
L: <none> - <Crate>
D: <none> - <Worker>
R: <Wall> - <none>
<CrateDestination> - <none> Neighbours:
U: <Wall> - <none>
L: <Switch> - <none>
D: <none>
R: <Wall> - <none>
<Wall> - <none> Neighbours:
U: <none>
L: <Wall> - <none>
D: <CrateDestination> - <none>
R: <Wall> - <none>
<Wall> - <none> Neighbours:
U: <Wall> - <none>
L: <Wall> - <none>
D: <none>
R: <none>
<Wall> - <none> Neighbours:
U: <Wall> - <none>
L: <none> - <Worker>
D: <Wall> - <none>
R: <none>
<Wall> - <none> Neighbours:
U: <Wall> - <none>
L: <none>
D: <Wall> - <none>
R: <none>
<Wall> - <none> Neighbours:
U: <Wall> - <none>
L: <CrateDestination> - <none>
D: <Wall> - <none>
R: <none>
<Wall> - <none> Neighbours:
U: <none>
L: <Wall> - <none>
D: <Wall> - <none>
R: <none>
<\Test_workerCantStepOnOWorker_Tiles>

<Test_workerCantStepOnOWorker_WorkerPositions1>
<Worker>,<none> - <Worker> Neighbours:
U: <Wall> - <none>
L: <SwitchHole> - <none>
D: <none>
R: <Switch> - <none>
<Worker>,<none> - <Worker> Neighbours:
U: <none>
L: <none>
D: <Wall> - <none>
R: <Wall> - <none>
<\Test_workerCantStepOnOWorker_WorkerPositions1>

<Test_workerCantStepOnOWorker_WorkerPositions2>
<Worker>,<none> - <Worker> Neighbours:
U: <none>
L: <none>
D: <Wall> - <none>
R: <none> - <Worker>
<Worker>,<none> - <Worker> Neighbours:
U: <none>
L: <none> - <Worker>
D: <Wall> - <none>
R: <Wall> - <none>
<\Test_workerCantStepOnOWorker_WorkerPositions2>

-----------------------------------------------------------------------------------------------------------------------------------------------------------
<Test_workerCantStepOnWall_Tiles>
<Wall> - <none> Neighbours:
U: <Wall> - <none>
L: <none>
D: <none>
R: <Wall> - <none>
<Wall> - <none> Neighbours:
U: <Wall> - <none>
L: <none>
D: <Wall> - <none>
R: <CrateDestination> - <none>
<Wall> - <none> Neighbours:
U: <Wall> - <none>
L: <none>
D: <Wall> - <none>
R: <none>
<Wall> - <none> Neighbours:
U: <Wall> - <none>
L: <none>
D: <Wall> - <none>
R: <none>
<Wall> - <none> Neighbours:
U: <none>
L: <none>
D: <Wall> - <none>
R: <Wall> - <none>
<Wall> - <none> Neighbours:
U: <CrateDestination> - <none>
L: <Wall> - <none>
D: <none>
R: <Wall> - <none>
<CrateDestination> - <none> Neighbours:
U: <none>
L: <Wall> - <none>
D: <Wall> - <none>
R: <none>
<none> - <none> Neighbours:
U: <none>
L: <Wall> - <none>
D: <CrateDestination> - <none>
R: <none> - <Crate>
<none> - <none> Neighbours:
U: <Wall> - <none>
L: <Wall> - <none>
D: <none>
R: <SwitchHole> - <none>
<Wall> - <none> Neighbours:
U: <none>
L: <Wall> - <none>
D: <none>
R: <Wall> - <none>
<Wall> - <none> Neighbours:
U: <none>
L: <Wall> - <none>
D: <none>
R: <Wall> - <none>
<none> - <none> Neighbours:
U: <none> - <Crate>
L: <CrateDestination> - <none>
D: <Wall> - <none>
R: <none>
<none> - <Crate> Neighbours:
U: <SwitchHole> - <none>
L: <none>
D: <none>
R: <none>
<SwitchHole> - <none> Neighbours:
U: <Wall> - <none>
L: <none>
D: <none> - <Crate>
R: <none> - <Worker>
<Wall> - <none> Neighbours:
U: <none>
L: <Wall> - <none>
D: <SwitchHole> - <none>
R: <Wall> - <none>
<Wall> - <none> Neighbours:
U: <none>
L: <Wall> - <none>
D: <none>
R: <Wall> - <none>
<none> - <none> Neighbours:
U: <none>
L: <none>
D: <Wall> - <none>
R: <none>
<none> - <none> Neighbours:
U: <none> - <Worker>
L: <none> - <Crate>
D: <none>
R: <none> - <Crate>
<none> - <Worker> Neighbours:
U: <Wall> - <none>
L: <SwitchHole> - <none>
D: <none>
R: <Switch> - <none>
<Wall> - <none> Neighbours:
U: <none>
L: <Wall> - <none>
D: <none> - <Worker>
R: <Wall> - <none>
<Wall> - <none> Neighbours:
U: <none>
L: <Wall> - <none>
D: <none>
R: <Wall> - <none>
<none> - <none> Neighbours:
U: <none> - <Crate>
L: <none>
D: <Wall> - <none>
R: <none> - <Worker>
<none> - <Crate> Neighbours:
U: <Switch> - <none>
L: <none>
D: <none>
R: <none>
<Switch> - <none> Neighbours:
U: <Wall> - <none>
L: <none> - <Worker>
D: <none> - <Crate>
R: <CrateDestination> - <none>
<Wall> - <none> Neighbours:
U: <none>
L: <Wall> - <none>
D: <Switch> - <none>
R: <Wall> - <none>
<Wall> - <none> Neighbours:
U: <none> - <Worker>
L: <Wall> - <none>
D: <none>
R: <Wall> - <none>
<none> - <Worker> Neighbours:
U: <none>
L: <none>
D: <Wall> - <none>
R: <Wall> - <none>
<none> - <none> Neighbours:
U: <CrateDestination> - <none>
L: <none> - <Crate>
D: <none> - <Worker>
R: <Wall> - <none>
<CrateDestination> - <none> Neighbours:
U: <Wall> - <none>
L: <Switch> - <none>
D: <none>
R: <Wall> - <none>
<Wall> - <none> Neighbours:
U: <none>
L: <Wall> - <none>
D: <CrateDestination> - <none>
R: <Wall> - <none>
<Wall> - <none> Neighbours:
U: <Wall> - <none>
L: <Wall> - <none>
D: <none>
R: <none>
<Wall> - <none> Neighbours:
U: <Wall> - <none>
L: <none> - <Worker>
D: <Wall> - <none>
R: <none>
<Wall> - <none> Neighbours:
U: <Wall> - <none>
L: <none>
D: <Wall> - <none>
R: <none>
<Wall> - <none> Neighbours:
U: <Wall> - <none>
L: <CrateDestination> - <none>
D: <Wall> - <none>
R: <none>
<Wall> - <none> Neighbours:
U: <none>
L: <Wall> - <none>
D: <Wall> - <none>
R: <none>
<\Test_workerCantStepOnWall_Tiles>

<Test_workerCantStepOnWall_WorkerPositions1>
<Worker>,<none> - <Worker> Neighbours:
U: <Wall> - <none>
L: <SwitchHole> - <none>
D: <none>
R: <Switch> - <none>
<Worker>,<none> - <Worker> Neighbours:
U: <none>
L: <none>
D: <Wall> - <none>
R: <Wall> - <none>
<\Test_workerCantStepOnWall_WorkerPositions1>

<Test_workerCantStepOnWall_WorkerPositions2>
<Worker>,<none> - <Worker> Neighbours:
U: <Wall> - <none>
L: <SwitchHole> - <none>
D: <none>
R: <Switch> - <none>
<Worker>,<none> - <Worker> Neighbours:
U: <none>
L: <none>
D: <Wall> - <none>
R: <Wall> - <none>
<\Test_workerCantStepOnWall_WorkerPositions2>

-----------------------------------------------------------------------------------------------------------------------------------------------------------
<Test_crateDoesntDieOnDeactSHole_Tiles>
<Wall> - <none> Neighbours:
U: <Wall> - <none>
L: <none>
D: <none>
R: <Wall> - <none>
<Wall> - <none> Neighbours:
U: <Wall> - <none>
L: <none>
D: <Wall> - <none>
R: <CrateDestination> - <none>
<Wall> - <none> Neighbours:
U: <Wall> - <none>
L: <none>
D: <Wall> - <none>
R: <none>
<Wall> - <none> Neighbours:
U: <Wall> - <none>
L: <none>
D: <Wall> - <none>
R: <none>
<Wall> - <none> Neighbours:
U: <none>
L: <none>
D: <Wall> - <none>
R: <Wall> - <none>
<Wall> - <none> Neighbours:
U: <CrateDestination> - <none>
L: <Wall> - <none>
D: <none>
R: <Wall> - <none>
<CrateDestination> - <none> Neighbours:
U: <none>
L: <Wall> - <none>
D: <Wall> - <none>
R: <none>
<none> - <none> Neighbours:
U: <none>
L: <Wall> - <none>
D: <CrateDestination> - <none>
R: <none> - <Crate>
<none> - <none> Neighbours:
U: <Wall> - <none>
L: <Wall> - <none>
D: <none>
R: <SwitchHole> - <none>
<Wall> - <none> Neighbours:
U: <none>
L: <Wall> - <none>
D: <none>
R: <Wall> - <none>
<Wall> - <none> Neighbours:
U: <none>
L: <Wall> - <none>
D: <none>
R: <Wall> - <none>
<none> - <none> Neighbours:
U: <none> - <Crate>
L: <CrateDestination> - <none>
D: <Wall> - <none>
R: <none>
<none> - <Crate> Neighbours:
U: <SwitchHole> - <none>
L: <none>
D: <none>
R: <none>
<SwitchHole> - <none> Neighbours:
U: <Wall> - <none>
L: <none>
D: <none> - <Crate>
R: <none> - <Worker>
<Wall> - <none> Neighbours:
U: <none>
L: <Wall> - <none>
D: <SwitchHole> - <none>
R: <Wall> - <none>
<Wall> - <none> Neighbours:
U: <none>
L: <Wall> - <none>
D: <none>
R: <Wall> - <none>
<none> - <none> Neighbours:
U: <none>
L: <none>
D: <Wall> - <none>
R: <none>
<none> - <none> Neighbours:
U: <none> - <Worker>
L: <none> - <Crate>
D: <none>
R: <none> - <Crate>
<none> - <Worker> Neighbours:
U: <Wall> - <none>
L: <SwitchHole> - <none>
D: <none>
R: <Switch> - <none>
<Wall> - <none> Neighbours:
U: <none>
L: <Wall> - <none>
D: <none> - <Worker>
R: <Wall> - <none>
<Wall> - <none> Neighbours:
U: <none>
L: <Wall> - <none>
D: <none>
R: <Wall> - <none>
<none> - <none> Neighbours:
U: <none> - <Crate>
L: <none>
D: <Wall> - <none>
R: <none> - <Worker>
<none> - <Crate> Neighbours:
U: <Switch> - <none>
L: <none>
D: <none>
R: <none>
<Switch> - <none> Neighbours:
U: <Wall> - <none>
L: <none> - <Worker>
D: <none> - <Crate>
R: <CrateDestination> - <none>
<Wall> - <none> Neighbours:
U: <none>
L: <Wall> - <none>
D: <Switch> - <none>
R: <Wall> - <none>
<Wall> - <none> Neighbours:
U: <none> - <Worker>
L: <Wall> - <none>
D: <none>
R: <Wall> - <none>
<none> - <Worker> Neighbours:
U: <none>
L: <none>
D: <Wall> - <none>
R: <Wall> - <none>
<none> - <none> Neighbours:
U: <CrateDestination> - <none>
L: <none> - <Crate>
D: <none> - <Worker>
R: <Wall> - <none>
<CrateDestination> - <none> Neighbours:
U: <Wall> - <none>
L: <Switch> - <none>
D: <none>
R: <Wall> - <none>
<Wall> - <none> Neighbours:
U: <none>
L: <Wall> - <none>
D: <CrateDestination> - <none>
R: <Wall> - <none>
<Wall> - <none> Neighbours:
U: <Wall> - <none>
L: <Wall> - <none>
D: <none>
R: <none>
<Wall> - <none> Neighbours:
U: <Wall> - <none>
L: <none> - <Worker>
D: <Wall> - <none>
R: <none>
<Wall> - <none> Neighbours:
U: <Wall> - <none>
L: <none>
D: <Wall> - <none>
R: <none>
<Wall> - <none> Neighbours:
U: <Wall> - <none>
L: <CrateDestination> - <none>
D: <Wall> - <none>
R: <none>
<Wall> - <none> Neighbours:
U: <none>
L: <Wall> - <none>
D: <Wall> - <none>
R: <none>
<\Test_crateDoesntDieOnDeactSHole_Tiles>

<Test_crateDoesntDieOnDeactSHole_WorkerPositions1>
<Worker>,<none> - <Worker> Neighbours:
U: <Wall> - <none>
L: <SwitchHole> - <none>
D: <none>
R: <Switch> - <none>
<Worker>,<none> - <Worker> Neighbours:
U: <none>
L: <none>
D: <Wall> - <none>
R: <Wall> - <none>
<\Test_crateDoesntDieOnDeactSHole_WorkerPositions1>

<Test_crateDoesntDieOnDeactSHole_CratePosAndDes1>
<CrateDestination>,<CrateDestination> - <none> Neighbours:
U: <none>
L: <Wall> - <none>
D: <Wall> - <none>
R: <none>
<Crate>,<none> - <Crate> Neighbours:
U: <SwitchHole> - <none>
L: <none>
D: <none>
R: <none>
<Crate>,<none> - <Crate> Neighbours:
U: <Switch> - <none>
L: <none>
D: <none>
R: <none>
<CrateDestination>,<CrateDestination> - <none> Neighbours:
U: <Wall> - <none>
L: <Switch> - <none>
D: <none>
R: <Wall> - <none>
<\Test_crateDoesntDieOnDeactSHole_CratePosAndDes1>

<Test_crateDoesntDieOnDeactSHole_CratePosAndDes2>
<CrateDestination>,<CrateDestination> - <none> Neighbours:
U: <none>
L: <Wall> - <none>
D: <Wall> - <none>
R: <none>
<Crate>,<SwitchHole> - <Crate> Neighbours:
U: <Wall> - <none>
L: <none>
D: <none> - <Worker>
R: <none> - <Worker>
<Crate>,<none> - <Crate> Neighbours:
U: <Switch> - <none>
L: <none>
D: <none>
R: <none>
<CrateDestination>,<CrateDestination> - <none> Neighbours:
U: <Wall> - <none>
L: <Switch> - <none>
D: <none>
R: <Wall> - <none>
<\Test_crateDoesntDieOnDeactSHole_CratePosAndDes2>

<Test_crateDoesntDieOnDeactSHole_WorkerPositions2>
<Worker>,<none> - <Worker> Neighbours:
U: <Wall> - <none>
L: <SwitchHole> - <none>
D: <none>
R: <Switch> - <none>
<Worker>,<none> - <Worker> Neighbours:
U: <SwitchHole> - <Crate>
L: <none>
D: <none>
R: <none>
<\Test_crateDoesntDieOnDeactSHole_WorkerPositions2>

-----------------------------------------------------------------------------------------------------------------------------------------------------------
<Test_crateDiesOnActSHole_Tiles>
<Wall> - <none> Neighbours:
U: <Wall> - <none>
L: <none>
D: <none>
R: <Wall> - <none>
<Wall> - <none> Neighbours:
U: <Wall> - <none>
L: <none>
D: <Wall> - <none>
R: <CrateDestination> - <none>
<Wall> - <none> Neighbours:
U: <Wall> - <none>
L: <none>
D: <Wall> - <none>
R: <none>
<Wall> - <none> Neighbours:
U: <Wall> - <none>
L: <none>
D: <Wall> - <none>
R: <none>
<Wall> - <none> Neighbours:
U: <none>
L: <none>
D: <Wall> - <none>
R: <Wall> - <none>
<Wall> - <none> Neighbours:
U: <CrateDestination> - <none>
L: <Wall> - <none>
D: <none>
R: <Wall> - <none>
<CrateDestination> - <none> Neighbours:
U: <none>
L: <Wall> - <none>
D: <Wall> - <none>
R: <none>
<none> - <none> Neighbours:
U: <none>
L: <Wall> - <none>
D: <CrateDestination> - <none>
R: <none> - <Crate>
<none> - <none> Neighbours:
U: <Wall> - <none>
L: <Wall> - <none>
D: <none>
R: <SwitchHole> - <none>
<Wall> - <none> Neighbours:
U: <none>
L: <Wall> - <none>
D: <none>
R: <Wall> - <none>
<Wall> - <none> Neighbours:
U: <none>
L: <Wall> - <none>
D: <none>
R: <Wall> - <none>
<none> - <none> Neighbours:
U: <none> - <Crate>
L: <CrateDestination> - <none>
D: <Wall> - <none>
R: <none>
<none> - <Crate> Neighbours:
U: <SwitchHole> - <none>
L: <none>
D: <none>
R: <none>
<SwitchHole> - <none> Neighbours:
U: <Wall> - <none>
L: <none>
D: <none> - <Crate>
R: <none> - <Worker>
<Wall> - <none> Neighbours:
U: <none>
L: <Wall> - <none>
D: <SwitchHole> - <none>
R: <Wall> - <none>
<Wall> - <none> Neighbours:
U: <none>
L: <Wall> - <none>
D: <none>
R: <Wall> - <none>
<none> - <none> Neighbours:
U: <none>
L: <none>
D: <Wall> - <none>
R: <none>
<none> - <none> Neighbours:
U: <none> - <Worker>
L: <none> - <Crate>
D: <none>
R: <none> - <Crate>
<none> - <Worker> Neighbours:
U: <Wall> - <none>
L: <SwitchHole> - <none>
D: <none>
R: <Switch> - <none>
<Wall> - <none> Neighbours:
U: <none>
L: <Wall> - <none>
D: <none> - <Worker>
R: <Wall> - <none>
<Wall> - <none> Neighbours:
U: <none>
L: <Wall> - <none>
D: <none>
R: <Wall> - <none>
<none> - <none> Neighbours:
U: <none> - <Crate>
L: <none>
D: <Wall> - <none>
R: <none> - <Worker>
<none> - <Crate> Neighbours:
U: <Switch> - <none>
L: <none>
D: <none>
R: <none>
<Switch> - <none> Neighbours:
U: <Wall> - <none>
L: <none> - <Worker>
D: <none> - <Crate>
R: <CrateDestination> - <none>
<Wall> - <none> Neighbours:
U: <none>
L: <Wall> - <none>
D: <Switch> - <none>
R: <Wall> - <none>
<Wall> - <none> Neighbours:
U: <none> - <Worker>
L: <Wall> - <none>
D: <none>
R: <Wall> - <none>
<none> - <Worker> Neighbours:
U: <none>
L: <none>
D: <Wall> - <none>
R: <Wall> - <none>
<none> - <none> Neighbours:
U: <CrateDestination> - <none>
L: <none> - <Crate>
D: <none> - <Worker>
R: <Wall> - <none>
<CrateDestination> - <none> Neighbours:
U: <Wall> - <none>
L: <Switch> - <none>
D: <none>
R: <Wall> - <none>
<Wall> - <none> Neighbours:
U: <none>
L: <Wall> - <none>
D: <CrateDestination> - <none>
R: <Wall> - <none>
<Wall> - <none> Neighbours:
U: <Wall> - <none>
L: <Wall> - <none>
D: <none>
R: <none>
<Wall> - <none> Neighbours:
U: <Wall> - <none>
L: <none> - <Worker>
D: <Wall> - <none>
R: <none>
<Wall> - <none> Neighbours:
U: <Wall> - <none>
L: <none>
D: <Wall> - <none>
R: <none>
<Wall> - <none> Neighbours:
U: <Wall> - <none>
L: <CrateDestination> - <none>
D: <Wall> - <none>
R: <none>
<Wall> - <none> Neighbours:
U: <none>
L: <Wall> - <none>
D: <Wall> - <none>
R: <none>
<\Test_crateDiesOnActSHole_Tiles>

<Test_crateDiesOnActSHole_WorkerPositions1>
<Worker>,<none> - <Worker> Neighbours:
U: <Wall> - <none>
L: <SwitchHole> - <none>
D: <none>
R: <Switch> - <none>
<Worker>,<none> - <Worker> Neighbours:
U: <none>
L: <none>
D: <Wall> - <none>
R: <Wall> - <none>
<\Test_crateDiesOnActSHole_WorkerPositions1>

<Test_crateDiesOnActSHole_CratePosAndDes1>
<CrateDestination>,<CrateDestination> - <none> Neighbours:
U: <none>
L: <Wall> - <none>
D: <Wall> - <none>
R: <none>
<Crate>,<none> - <Crate> Neighbours:
U: <SwitchHole> - <none>
L: <none>
D: <none>
R: <none>
<Crate>,<none> - <Crate> Neighbours:
U: <Switch> - <none>
L: <none>
D: <none>
R: <none>
<CrateDestination>,<CrateDestination> - <none> Neighbours:
U: <Wall> - <none>
L: <Switch> - <none>
D: <none>
R: <Wall> - <none>
<\Test_crateDiesOnActSHole_CratePosAndDes1>

<Test_crateDiesOnActSHole_CratePosAndDes2>
<CrateDestination>,<CrateDestination> - <none> Neighbours:
U: <none>
L: <Wall> - <none>
D: <Wall> - <none>
R: <none>
<Crate>,<none> - <Crate> Neighbours:
U: <Wall> - <none>
L: <none>
D: <none> - <Worker>
R: <CrateDestination> - <none>
<CrateDestination>,<CrateDestination> - <none> Neighbours:
U: <Wall> - <none>
L: <Switch> - <Crate>
D: <none>
R: <Wall> - <none>
<\Test_crateDiesOnActSHole_CratePosAndDes2>

<Test_crateDiesOnActSHole_WorkerPositions2>
<Worker>,<none> - <Worker> Neighbours:
U: <SwitchHole> - <none>
L: <none>
D: <none>
R: <none>
<Worker>,<none> - <Worker> Neighbours:
U: <Switch> - <Crate>
L: <none>
D: <none>
R: <none>
<\Test_crateDiesOnActSHole_WorkerPositions2>

-----------------------------------------------------------------------------------------------------------------------------------------------------------
<Test_workerDiesOnActSHole_Tiles>
<Wall> - <none> Neighbours:
U: <Wall> - <none>
L: <none>
D: <none>
R: <Wall> - <none>
<Wall> - <none> Neighbours:
U: <Wall> - <none>
L: <none>
D: <Wall> - <none>
R: <CrateDestination> - <none>
<Wall> - <none> Neighbours:
U: <Wall> - <none>
L: <none>
D: <Wall> - <none>
R: <none>
<Wall> - <none> Neighbours:
U: <Wall> - <none>
L: <none>
D: <Wall> - <none>
R: <none>
<Wall> - <none> Neighbours:
U: <none>
L: <none>
D: <Wall> - <none>
R: <Wall> - <none>
<Wall> - <none> Neighbours:
U: <CrateDestination> - <none>
L: <Wall> - <none>
D: <none>
R: <Wall> - <none>
<CrateDestination> - <none> Neighbours:
U: <none>
L: <Wall> - <none>
D: <Wall> - <none>
R: <none>
<none> - <none> Neighbours:
U: <none>
L: <Wall> - <none>
D: <CrateDestination> - <none>
R: <none> - <Crate>
<none> - <none> Neighbours:
U: <Wall> - <none>
L: <Wall> - <none>
D: <none>
R: <SwitchHole> - <none>
<Wall> - <none> Neighbours:
U: <none>
L: <Wall> - <none>
D: <none>
R: <Wall> - <none>
<Wall> - <none> Neighbours:
U: <none>
L: <Wall> - <none>
D: <none>
R: <Wall> - <none>
<none> - <none> Neighbours:
U: <none> - <Crate>
L: <CrateDestination> - <none>
D: <Wall> - <none>
R: <none>
<none> - <Crate> Neighbours:
U: <SwitchHole> - <none>
L: <none>
D: <none>
R: <none>
<SwitchHole> - <none> Neighbours:
U: <Wall> - <none>
L: <none>
D: <none> - <Crate>
R: <none> - <Worker>
<Wall> - <none> Neighbours:
U: <none>
L: <Wall> - <none>
D: <SwitchHole> - <none>
R: <Wall> - <none>
<Wall> - <none> Neighbours:
U: <none>
L: <Wall> - <none>
D: <none>
R: <Wall> - <none>
<none> - <none> Neighbours:
U: <none>
L: <none>
D: <Wall> - <none>
R: <none>
<none> - <none> Neighbours:
U: <none> - <Worker>
L: <none> - <Crate>
D: <none>
R: <none> - <Crate>
<none> - <Worker> Neighbours:
U: <Wall> - <none>
L: <SwitchHole> - <none>
D: <none>
R: <Switch> - <none>
<Wall> - <none> Neighbours:
U: <none>
L: <Wall> - <none>
D: <none> - <Worker>
R: <Wall> - <none>
<Wall> - <none> Neighbours:
U: <none>
L: <Wall> - <none>
D: <none>
R: <Wall> - <none>
<none> - <none> Neighbours:
U: <none> - <Crate>
L: <none>
D: <Wall> - <none>
R: <none> - <Worker>
<none> - <Crate> Neighbours:
U: <Switch> - <none>
L: <none>
D: <none>
R: <none>
<Switch> - <none> Neighbours:
U: <Wall> - <none>
L: <none> - <Worker>
D: <none> - <Crate>
R: <CrateDestination> - <none>
<Wall> - <none> Neighbours:
U: <none>
L: <Wall> - <none>
D: <Switch> - <none>
R: <Wall> - <none>
<Wall> - <none> Neighbours:
U: <none> - <Worker>
L: <Wall> - <none>
D: <none>
R: <Wall> - <none>
<none> - <Worker> Neighbours:
U: <none>
L: <none>
D: <Wall> - <none>
R: <Wall> - <none>
<none> - <none> Neighbours:
U: <CrateDestination> - <none>
L: <none> - <Crate>
D: <none> - <Worker>
R: <Wall> - <none>
<CrateDestination> - <none> Neighbours:
U: <Wall> - <none>
L: <Switch> - <none>
D: <none>
R: <Wall> - <none>
<Wall> - <none> Neighbours:
U: <none>
L: <Wall> - <none>
D: <CrateDestination> - <none>
R: <Wall> - <none>
<Wall> - <none> Neighbours:
U: <Wall> - <none>
L: <Wall> - <none>
D: <none>
R: <none>
<Wall> - <none> Neighbours:
U: <Wall> - <none>
L: <none> - <Worker>
D: <Wall> - <none>
R: <none>
<Wall> - <none> Neighbours:
U: <Wall> - <none>
L: <none>
D: <Wall> - <none>
R: <none>
<Wall> - <none> Neighbours:
U: <Wall> - <none>
L: <CrateDestination> - <none>
D: <Wall> - <none>
R: <none>
<Wall> - <none> Neighbours:
U: <none>
L: <Wall> - <none>
D: <Wall> - <none>
R: <none>
<\Test_workerDiesOnActSHole_Tiles>

<Test_workerDiesOnActSHole_WorkerPositions1>
<Worker>,<none> - <Worker> Neighbours:
U: <Wall> - <none>
L: <SwitchHole> - <none>
D: <none>
R: <Switch> - <none>
<Worker>,<none> - <Worker> Neighbours:
U: <none>
L: <none>
D: <Wall> - <none>
R: <Wall> - <none>
<\Test_workerDiesOnActSHole_WorkerPositions1>

<Test_workerDiesOnActSHole_WorkerPositions2>
<Worker>,<none> - <Worker> Neighbours:
U: <Switch> - <Crate>
L: <none>
D: <none>
R: <none>
<\Test_workerDiesOnActSHole_WorkerPositions2>

-----------------------------------------------------------------------------------------------------------------------------------------------------------
<Test_crateBecomesWallOnCD_Tiles1>
<Wall> - <none> Neighbours:
U: <Wall> - <none>
L: <none>
D: <none>
R: <Wall> - <none>
<Wall> - <none> Neighbours:
U: <Wall> - <none>
L: <none>
D: <Wall> - <none>
R: <CrateDestination> - <none>
<Wall> - <none> Neighbours:
U: <Wall> - <none>
L: <none>
D: <Wall> - <none>
R: <none>
<Wall> - <none> Neighbours:
U: <Wall> - <none>
L: <none>
D: <Wall> - <none>
R: <none>
<Wall> - <none> Neighbours:
U: <none>
L: <none>
D: <Wall> - <none>
R: <Wall> - <none>
<Wall> - <none> Neighbours:
U: <CrateDestination> - <none>
L: <Wall> - <none>
D: <none>
R: <Wall> - <none>
<CrateDestination> - <none> Neighbours:
U: <none>
L: <Wall> - <none>
D: <Wall> - <none>
R: <none>
<none> - <none> Neighbours:
U: <none>
L: <Wall> - <none>
D: <CrateDestination> - <none>
R: <none> - <Crate>
<none> - <none> Neighbours:
U: <Wall> - <none>
L: <Wall> - <none>
D: <none>
R: <SwitchHole> - <none>
<Wall> - <none> Neighbours:
U: <none>
L: <Wall> - <none>
D: <none>
R: <Wall> - <none>
<Wall> - <none> Neighbours:
U: <none>
L: <Wall> - <none>
D: <none>
R: <Wall> - <none>
<none> - <none> Neighbours:
U: <none> - <Crate>
L: <CrateDestination> - <none>
D: <Wall> - <none>
R: <none>
<none> - <Crate> Neighbours:
U: <SwitchHole> - <none>
L: <none>
D: <none>
R: <none>
<SwitchHole> - <none> Neighbours:
U: <Wall> - <none>
L: <none>
D: <none> - <Crate>
R: <none> - <Worker>
<Wall> - <none> Neighbours:
U: <none>
L: <Wall> - <none>
D: <SwitchHole> - <none>
R: <Wall> - <none>
<Wall> - <none> Neighbours:
U: <none>
L: <Wall> - <none>
D: <none>
R: <Wall> - <none>
<none> - <none> Neighbours:
U: <none>
L: <none>
D: <Wall> - <none>
R: <none>
<none> - <none> Neighbours:
U: <none> - <Worker>
L: <none> - <Crate>
D: <none>
R: <none> - <Crate>
<none> - <Worker> Neighbours:
U: <Wall> - <none>
L: <SwitchHole> - <none>
D: <none>
R: <Switch> - <none>
<Wall> - <none> Neighbours:
U: <none>
L: <Wall> - <none>
D: <none> - <Worker>
R: <Wall> - <none>
<Wall> - <none> Neighbours:
U: <none>
L: <Wall> - <none>
D: <none>
R: <Wall> - <none>
<none> - <none> Neighbours:
U: <none> - <Crate>
L: <none>
D: <Wall> - <none>
R: <none> - <Worker>
<none> - <Crate> Neighbours:
U: <Switch> - <none>
L: <none>
D: <none>
R: <none>
<Switch> - <none> Neighbours:
U: <Wall> - <none>
L: <none> - <Worker>
D: <none> - <Crate>
R: <CrateDestination> - <none>
<Wall> - <none> Neighbours:
U: <none>
L: <Wall> - <none>
D: <Switch> - <none>
R: <Wall> - <none>
<Wall> - <none> Neighbours:
U: <none> - <Worker>
L: <Wall> - <none>
D: <none>
R: <Wall> - <none>
<none> - <Worker> Neighbours:
U: <none>
L: <none>
D: <Wall> - <none>
R: <Wall> - <none>
<none> - <none> Neighbours:
U: <CrateDestination> - <none>
L: <none> - <Crate>
D: <none> - <Worker>
R: <Wall> - <none>
<CrateDestination> - <none> Neighbours:
U: <Wall> - <none>
L: <Switch> - <none>
D: <none>
R: <Wall> - <none>
<Wall> - <none> Neighbours:
U: <none>
L: <Wall> - <none>
D: <CrateDestination> - <none>
R: <Wall> - <none>
<Wall> - <none> Neighbours:
U: <Wall> - <none>
L: <Wall> - <none>
D: <none>
R: <none>
<Wall> - <none> Neighbours:
U: <Wall> - <none>
L: <none> - <Worker>
D: <Wall> - <none>
R: <none>
<Wall> - <none> Neighbours:
U: <Wall> - <none>
L: <none>
D: <Wall> - <none>
R: <none>
<Wall> - <none> Neighbours:
U: <Wall> - <none>
L: <CrateDestination> - <none>
D: <Wall> - <none>
R: <none>
<Wall> - <none> Neighbours:
U: <none>
L: <Wall> - <none>
D: <Wall> - <none>
R: <none>
<\Test_crateBecomesWallOnCD_Tiles1>

<Test_crateBecomesWallOnCD_CratePosAndDes1>
<CrateDestination>,<CrateDestination> - <none> Neighbours:
U: <none>
L: <Wall> - <none>
D: <Wall> - <none>
R: <none>
<Crate>,<none> - <Crate> Neighbours:
U: <SwitchHole> - <none>
L: <none>
D: <none>
R: <none>
<Crate>,<none> - <Crate> Neighbours:
U: <Switch> - <none>
L: <none>
D: <none>
R: <none>
<CrateDestination>,<CrateDestination> - <none> Neighbours:
U: <Wall> - <none>
L: <Switch> - <none>
D: <none>
R: <Wall> - <none>
<\Test_crateBecomesWallOnCD_CratePosAndDes1>

<Test_crateBecomesWallOnCD_Tiles2>
<Wall> - <none> Neighbours:
U: <Wall> - <none>
L: <none>
D: <none>
R: <Wall> - <none>
<Wall> - <none> Neighbours:
U: <Wall> - <none>
L: <none>
D: <Wall> - <none>
R: <CrateDestination> - <none>
<Wall> - <none> Neighbours:
U: <Wall> - <none>
L: <none>
D: <Wall> - <none>
R: <none>
<Wall> - <none> Neighbours:
U: <Wall> - <none>
L: <none>
D: <Wall> - <none>
R: <none>
<Wall> - <none> Neighbours:
U: <none>
L: <none>
D: <Wall> - <none>
R: <Wall> - <none>
<Wall> - <none> Neighbours:
U: <CrateDestination> - <none>
L: <Wall> - <none>
D: <none>
R: <Wall> - <none>
<CrateDestination> - <none> Neighbours:
U: <none>
L: <Wall> - <none>
D: <Wall> - <none>
R: <none>
<none> - <none> Neighbours:
U: <none>
L: <Wall> - <none>
D: <CrateDestination> - <none>
R: <none> - <Crate>
<none> - <none> Neighbours:
U: <Wall> - <none>
L: <Wall> - <none>
D: <none>
R: <SwitchHole> - <none>
<Wall> - <none> Neighbours:
U: <none>
L: <Wall> - <none>
D: <none>
R: <Wall> - <none>
<Wall> - <none> Neighbours:
U: <none>
L: <Wall> - <none>
D: <none>
R: <Wall> - <none>
<none> - <none> Neighbours:
U: <none> - <Crate>
L: <CrateDestination> - <none>
D: <Wall> - <none>
R: <none>
<none> - <Crate> Neighbours:
U: <SwitchHole> - <none>
L: <none>
D: <none>
R: <none>
<SwitchHole> - <none> Neighbours:
U: <Wall> - <none>
L: <none>
D: <none> - <Crate>
R: <none>
<Wall> - <none> Neighbours:
U: <none>
L: <Wall> - <none>
D: <SwitchHole> - <none>
R: <Wall> - <none>
<Wall> - <none> Neighbours:
U: <none>
L: <Wall> - <none>
D: <none>
R: <Wall> - <none>
<none> - <none> Neighbours:
U: <none>
L: <none>
D: <Wall> - <none>
R: <none>
<none> - <none> Neighbours:
U: <none> - Worker
L: <none> - <Crate>
D: <none>
R: <none> - <Worker>
<none> - <none> Neighbours:
U: <Wall> - <none>
L: <SwitchHole> - <none>
D: <none>
R: <Switch> - <Worker>
<Wall> - <none> Neighbours:
U: <none>
L: <Wall> - <none>
D: <none>
R: <Wall> - <none>
<Wall> - <none> Neighbours:
U: <none>
L: <Wall> - <none>
D: <none>
R: <Wall> - <none>
<none> - <none> Neighbours:
U: <none> - <Worker>
L: <none>
D: <Wall> - <none>
R: <none>
<none> - <Worker> Neighbours:
U: <Switch> - <Worker>
L: <none>
D: <none>
R: <none>
<Switch> - <Worker> Neighbours:
U: <Wall> - <none>
L: <none>
D: <none> - <Worker>
R: <Wall> - <none>
<Wall> - <none> Neighbours:
U: <none>
L: <Wall> - <none>
D: <Switch> - <Worker>
R: <Wall> - <none>
<Wall> - <none> Neighbours:
U: <none>
L: <Wall> - <none>
D: <none>
R: <Wall> - <none>
<none> - <none> Neighbours:
U: <none>
L: <none>
D: <Wall> - <none>
R: <Wall> - <none>
<none> - <none> Neighbours:
U: <Wall> - <none>
L: <none> - <Worker>
D: <none>
R: <Wall> - <none>
<Wall> - <none> Neighbours:
U: <Wall> - <none>
L: <Switch> - <Worker>
D: <none>
R: <Wall> - <none>
<Wall> - <none> Neighbours:
U: <none>
L: <Wall> - <none>
D: <Wall> - <none>
R: <Wall> - <none>
<Wall> - <none> Neighbours:
U: <Wall> - <none>
L: <Wall> - <none>
D: <none>
R: <none>
<Wall> - <none> Neighbours:
U: <Wall> - <none>
L: <none>
D: <Wall> - <none>
R: <none>
<Wall> - <none> Neighbours:
U: <Wall> - <none>
L: <none>
D: <Wall> - <none>
R: <none>
<Wall> - <none> Neighbours:
U: <Wall> - <none>
L: <Wall> - <none>
D: <Wall> - <none>
R: <none>
<Wall> - <none> Neighbours:
U: <none>
L: <Wall> - <none>
D: <Wall> - <none>
R: <none>
<\Test_crateBecomesWallOnCD_Tiles2>

<Test_crateBecomesWallOnCD_CratePosAndDes2>
<CrateDestination>,<CrateDestination> - <none> Neighbours:
U: <none> - <none>
L: <Wall> - <none>
D: <Wall> - <none>
R: <none> - <none>
<Crate>,<none> - <Crate> Neighbours:
U: <SwitchHole> - <none>
L: <none>
D: <none>
R: <none>
<CrateDestination>,<CrateDestination> - <none> Neighbours:
U: <Wall> - <none>
L: <Switch> - <none>
D: <none> - <none>
R: <Wall> - <none>
<\Test_crateBecomesWallOnCD_CratePosAndDes2>

-----------------------------------------------------------------------------------------------------------------------------------------------------------
<Test_workerCanPushCrate_Tiles1>
<Wall> - <none> Neighbours:
U: <Wall> - <none>
L: <none>
D: <none>
R: <Wall> - <none>
<Wall> - <none> Neighbours:
U: <Wall> - <none>
L: <none>
D: <Wall> - <none>
R: <CrateDestination> - <none>
<Wall> - <none> Neighbours:
U: <Wall> - <none>
L: <none>
D: <Wall> - <none>
R: <none>
<Wall> - <none> Neighbours:
U: <Wall> - <none>
L: <none>
D: <Wall> - <none>
R: <none>
<Wall> - <none> Neighbours:
U: <none>
L: <none>
D: <Wall> - <none>
R: <Wall> - <none>
<Wall> - <none> Neighbours:
U: <CrateDestination> - <none>
L: <Wall> - <none>
D: <none>
R: <Wall> - <none>
<CrateDestination> - <none> Neighbours:
U: <none>
L: <Wall> - <none>
D: <Wall> - <none>
R: <none>
<none> - <none> Neighbours:
U: <none>
L: <Wall> - <none>
D: <CrateDestination> - <none>
R: <none> - <Crate>
<none> - <none> Neighbours:
U: <Wall> - <none>
L: <Wall> - <none>
D: <none>
R: <SwitchHole> - <none>
<Wall> - <none> Neighbours:
U: <none>
L: <Wall> - <none>
D: <none>
R: <Wall> - <none>
<Wall> - <none> Neighbours:
U: <none>
L: <Wall> - <none>
D: <none>
R: <Wall> - <none>
<none> - <none> Neighbours:
U: <none> - <Crate>
L: <CrateDestination> - <none>
D: <Wall> - <none>
R: <none>
<none> - <Crate> Neighbours:
U: <SwitchHole> - <none>
L: <none>
D: <none>
R: <none>
<SwitchHole> - <none> Neighbours:
U: <Wall> - <none>
L: <none>
D: <none> - <Crate>
R: <none> - <Worker>
<Wall> - <none> Neighbours:
U: <none>
L: <Wall> - <none>
D: <SwitchHole> - <none>
R: <Wall> - <none>
<Wall> - <none> Neighbours:
U: <none>
L: <Wall> - <none>
D: <none>
R: <Wall> - <none>
<none> - <none> Neighbours:
U: <none>
L: <none>
D: <Wall> - <none>
R: <none>
<none> - <none> Neighbours:
U: <none> - <Worker>
L: <none> - <Crate>
D: <none>
R: <none> - <Crate>
<none> - <Worker> Neighbours:
U: <Wall> - <none>
L: <SwitchHole> - <none>
D: <none>
R: <Switch> - <none>
<Wall> - <none> Neighbours:
U: <none>
L: <Wall> - <none>
D: <none> - <Worker>
R: <Wall> - <none>
<Wall> - <none> Neighbours:
U: <none>
L: <Wall> - <none>
D: <none>
R: <Wall> - <none>
<none> - <none> Neighbours:
U: <none> - <Crate>
L: <none>
D: <Wall> - <none>
R: <none> - <Worker>
<none> - <Crate> Neighbours:
U: <Switch> - <none>
L: <none>
D: <none>
R: <none>
<Switch> - <none> Neighbours:
U: <Wall> - <none>
L: <none> - <Worker>
D: <none> - <Crate>
R: <CrateDestination> - <none>
<Wall> - <none> Neighbours:
U: <none>
L: <Wall> - <none>
D: <Switch> - <none>
R: <Wall> - <none>
<Wall> - <none> Neighbours:
U: <none> - <Worker>
L: <Wall> - <none>
D: <none>
R: <Wall> - <none>
<none> - <Worker> Neighbours:
U: <none>
L: <none>
D: <Wall> - <none>
R: <Wall> - <none>
<none> - <none> Neighbours:
U: <CrateDestination> - <none>
L: <none> - <Crate>
D: <none> - <Worker>
R: <Wall> - <none>
<CrateDestination> - <none> Neighbours:
U: <Wall> - <none>
L: <Switch> - <none>
D: <none>
R: <Wall> - <none>
<Wall> - <none> Neighbours:
U: <none>
L: <Wall> - <none>
D: <CrateDestination> - <none>
R: <Wall> - <none>
<Wall> - <none> Neighbours:
U: <Wall> - <none>
L: <Wall> - <none>
D: <none>
R: <none>
<Wall> - <none> Neighbours:
U: <Wall> - <none>
L: <none> - <Worker>
D: <Wall> - <none>
R: <none>
<Wall> - <none> Neighbours:
U: <Wall> - <none>
L: <none>
D: <Wall> - <none>
R: <none>
<Wall> - <none> Neighbours:
U: <Wall> - <none>
L: <CrateDestination> - <none>
D: <Wall> - <none>
R: <none>
<Wall> - <none> Neighbours:
U: <none>
L: <Wall> - <none>
D: <Wall> - <none>
R: <none>
<\Test_workerCanPushCrate_Tiles1>

<Test_workerCanPushCrate_CratePosAndDes1>
<CrateDestination>,<CrateDestination> - <none> Neighbours:
U: <none>
L: <Wall> - <none>
D: <Wall> - <none>
R: <none>
<Crate>,<none> - <Crate> Neighbours:
U: <SwitchHole> - <none>
L: <none>
D: <none>
R: <none>
<Crate>,<none> - <Crate> Neighbours:
U: <Switch> - <none>
L: <none>
D: <none>
R: <none>
<CrateDestination>,<CrateDestination> - <none> Neighbours:
U: <Wall> - <none>
L: <Switch> - <none>
D: <none>
R: <Wall> - <none>
<\Test_workerCanPushCrate_CratePosAndDes1>

<Test_workerCanPushCrate_WorkerPositions1>
<Worker>,<none> - <Worker> Neighbours:
U: <Wall> - <none>
L: <SwitchHole> - <none>
D: <none>
R: <Switch> - <none>
<Worker>,<none> - <Worker> Neighbours:
U: <none>
L: <none>
D: <Wall> - <none>
R: <Wall> - <none>
<\Test_workerCanPushCrate_WorkerPositions1>

<Test_workerCanPushCrate_Tiles2>
<Wall> - <none> Neighbours:
U: <Wall> - <none>
L: <none>
D: <none>
R: <Wall> - <none>
<Wall> - <none> Neighbours:
U: <Wall> - <none>
L: <none>
D: <Wall> - <none>
R: <CrateDestination> - <none>
<Wall> - <none> Neighbours:
U: <Wall> - <none>
L: <none>
D: <Wall> - <none>
R: <none>
<Wall> - <none> Neighbours:
U: <Wall> - <none>
L: <none>
D: <Wall> - <none>
R: <none>
<Wall> - <none> Neighbours:
U: <none>
L: <none>
D: <Wall> - <none>
R: <Wall> - <none>
<Wall> - <none> Neighbours:
U: <CrateDestination> - <none>
L: <Wall> - <none>
D: <none>
R: <Wall> - <none>
<CrateDestination> - <none> Neighbours:
U: <none>
L: <Wall> - <none>
D: <Wall> - <none>
R: <none>
<none> - <none> Neighbours:
U: <none>
L: <Wall> - <none>
D: <CrateDestination> - <none>
R: <none> - <Crate>
<none> - <none> Neighbours:
U: <Wall> - <none>
L: <Wall> - <none>
D: <none>
R: <SwitchHole> - <none>
<Wall> - <none> Neighbours:
U: <none>
L: <Wall> - <none>
D: <none>
R: <Wall> - <none>
<Wall> - <none> Neighbours:
U: <none>
L: <Wall> - <none>
D: <none>
R: <Wall> - <none>
<none> - <none> Neighbours:
U: <none> - <Crate>
L: <CrateDestination> - <none>
D: <Wall> - <none>
R: <none>
<none> - <Crate> Neighbours:
U: <SwitchHole> - <none>
L: <none>
D: <none>
R: <none>
<SwitchHole> - <none> Neighbours:
U: <Wall> - <none>
L: <none>
D: <none> - <Crate>
R: <none>
<Wall> - <none> Neighbours:
U: <none>
L: <Wall> - <none>
D: <SwitchHole> - <none>
R: <Wall> - <none>
<Wall> - <none> Neighbours:
U: <none>
L: <Wall> - <none>
D: <none>
R: <Wall> - <none>
<none> - <none> Neighbours:
U: <none>
L: <none>
D: <Wall> - <none>
R: <none>
<none> - <none> Neighbours:
U: <none>
L: <none> - <Crate>
D: <none>
R: <none> - <Worker>
<none> - <none> Neighbours:
U: <Wall> - <none>
L: <SwitchHole> - <none>
D: <none>
R: <Switch> - <none>
<Wall> - <none> Neighbours:
U: <none>
L: <Wall> - <none>
D: <none>
R: <Wall> - <none>
<Wall> - <none> Neighbours:
U: <none>
L: <Wall> - <none>
D: <none>
R: <Wall> - <none>
<none> - <none> Neighbours:
U: <none> - <Worker>
L: <none>
D: <Wall> - <none>
R: <none> - <Worker>
<none> - <Worker> Neighbours:
U: <Switch> - <none>
L: <none>
D: <none>
R: <none> - <Crate>
<Switch> - <none> Neighbours:
U: <Wall> - <none>
L: <none>
D: <none> - <Worker>
R: <CrateDestination> - <none>
<Wall> - <none> Neighbours:
U: <none>
L: <Wall> - <none>
D: <Switch> - <none>
R: <Wall> - <none>
<Wall> - <none> Neighbours:
U: <none> - <Worker>
L: <Wall> - <none>
D: <none>
R: <Wall> - <none>
<none> - <Worker> Neighbours:
U: <none> - <Crate>
L: <none>
D: <Wall> - <none>
R: <Wall> - <none>
<none> - <Crate> Neighbours:
U: <CrateDestination> - <none>
L: <none> - <Worker>
D: <none> - <Worker>
R: <Wall> - <none>
<CrateDestination> - <none> Neighbours:
U: <Wall> - <none>
L: <Switch> - <none>
D: <none> - <Crate>
R: <Wall> - <none>
<Wall> - <none> Neighbours:
U: <none>
L: <Wall> - <none>
D: <CrateDestination> - <none>
R: <Wall> - <none>
<Wall> - <none> Neighbours:
U: <Wall> - <none>
L: <Wall> - <none>
D: <none>
R: <none>
<Wall> - <none> Neighbours:
U: <Wall> - <none>
L: <none> - <Worker>
D: <Wall> - <none>
R: <none>
<Wall> - <none> Neighbours:
U: <Wall> - <none>
L: <none> - <Crate>
D: <Wall> - <none>
R: <none>
<Wall> - <none> Neighbours:
U: <Wall> - <none>
L: <CrateDestination> - <none>
D: <Wall> - <none>
R: <none>
<Wall> - <none> Neighbours:
U: <none>
L: <Wall> - <none>
D: <Wall> - <none>
R: <none>
<\Test_workerCanPushCrate_Tiles2>

<Test_workerCanPushCrate_CratePosAndDes2>
<CrateDestination>,<CrateDestination> - <none> Neighbours:
U: <none>
L: <Wall> - <none>
D: <Wall> - <none>
R: <none>
<Crate>,<none> - <Crate> Neighbours:
U: <SwitchHole> - <none>
L: <none>
D: <none>
R: <none>
<Crate>,<none> - <Crate> Neighbours:
U: <CrateDestination> - <none>
L: <none> - <Worker>
D: <none> - <Worker>
R: <Wall> - <none>
<CrateDestination>,<CrateDestination> - <none> Neighbours:
U: <Wall> - <none>
L: <Switch> - <none>
D: <none> - <Crate>
R: <Wall> - <none>
<\Test_workerCanPushCrate_CratePosAndDes2>

<Test_workerCanPushCrate_WorkerPositions2>
<Worker>,<none> - <Worker> Neighbours:
U: <Switch> - <none>
L: <none>
D: <none>
R: <none> - <Crate>
<Worker>,<none> - <Worker> Neighbours:
U: <none> - <Crate>
L: <none>
D: <Wall> - <none>
R: <Wall> - <none>
<\Test_workerCanPushCrate_WorkerPositions2>

